About • cypro
…
cypro is compatible with the output of all state of the art image processing softwares such as CellProfiler, CellTracker, ImageJ.

1. Concept

Throughout all functions and applications cypro implements the tidy-data-concept and draws it’s main power from the tidyverse. With respect to the integration of individual analysis concepts this means in particular that all data.frames in cypro are oriented towards the tidy-data structure in which each row represents an observation and every column represents a variable (information) of that observation. A consistent output and a consistent terminology facilitates the application of individual ideas via powerful tidyverse- and tidymodelling functions.

2. Data Input

There are two kinds of output tables exported by image processing software mainly depending on the experiment design with which the underlying images have been generated.

2.1 Timelapse Experiments

In timelapse experiments cells are repeatedly imaged over a defined timespan. Data tables that quantify the measurements of every image contain observations/rows that represent a cell at a given point of time with all its measured features. The track files of the CellTracker-software exemplify that.

## # A tibble: 200 x 9
##    `Cell ID` `Frame number` `y-coordinate [p~ `x-coordinate [~ `Distance from o~
##        <dbl>          <dbl>             <dbl>            <dbl>             <dbl>
##  1         1              1               784               98              NA  
##  2         1              2               792               80              19.7
##  3         1              3               791               78              21.2
##  4         1              4               795               75              25.5
##  5         1              5               801               77              27.0
##  6         1              6               797               80              22.2
##  7         1              7               799               81              22.7
##  8         1              8               796               83              19.2
##  9         1              9               800               86              20  
## 10         1             10               806               92              22.8
## # ... with 190 more rows, and 4 more variables:
## #   Distance from last point [micrometer] <dbl>,
## #   Instantaneous speed [micrometer/hour] <dbl>,
## #   Angle from origin [degree] <dbl>, Angle from last point [degree] <dbl>

The cell is identified by the Cell ID-variable and the point of time is identified by the Frame number-variable. As long as your data tables contain columns that represent these two variables you can analyze them with celltracer. Every additional variable such as coordinates, distances, or - in case of CellProfiler outputs - shape and intensity related features provide optional additional information.

Based on the timelapse results summary statistics can be computed that describe a cells mean or median characteristics. This is exemplified by the stat files of the CellTracker-software.

## # A tibble: 123 x 10
##    `Cell ID` `Length total w~ `Maximum distan~ `Average distan~ `Maximum distan~
##        <dbl>            <dbl>            <dbl>            <dbl>            <dbl>
##  1         1            228.              66.1             30.8             31.8
##  2         2            255.              91.0             47.7             34.1
##  3         3            272.              81.3             31.5             38.2
##  4         4            326.             128.              48.7             38.8
##  5         5            396.              77.0             24.4             40.5
##  6         6             91.4             17.3             11.5             12.4
##  7         7            107.              19.8             11.6             15.3
##  8         8            133.              47.0             34.6             17.0
##  9         9            160.              35.2             17.7             19  
## 10        10            288.             144.              47.8             38.8
## # ... with 113 more rows, and 5 more variables:
## #   Average distance from last point [micrometer] <dbl>,
## #   Maximum speed [micrometer/hour] <dbl>,
## #   Average speed [micrometer/hour] <dbl>,
## #   Average angle of direction from origin [degree] <dbl>,
## #   Average angle of direction from last point [degree] <dbl>

Here, the focus shifts from cells at a given point of time to only cells which is why the identifying variable referring to the point of time is no longer needed and the Cell ID-variable is sufficient. cypro calculates the summary statistics automatically if you provide it with track files. If you only have files that contain summarized time lapse data you can analyze them with celltracer, too, though you would have to take a pass on the analysis of cellular states at given points of time as the information is missing.

2.2 One Time Imaging

In one time imaging experiments cells are imaged only one time. The Human MCF7 cells-compound-profiling-experiment serves as an example for that. In this case again the data files observations refer to cells at a given point of time. As there is, however, only one point of time the variable referring to it is negligible. The table below is a subset of an output file derived from the CellProfiler pipeline that has been published together with the data set you find using the link above.

## # A tibble: 164 x 25
##    ObjectNumber  Area BoundingBoxArea BoundingBoxMaximum_X BoundingBoxMaximum_Y
##           <dbl> <dbl>           <dbl>                <dbl>                <dbl>
##  1            1  1611            2806                  414                   46
##  2            2  2628            4585                  593                   35
##  3            3  2817            4368                  337                   52
##  4            4  2279            4560                  183                   48
##  5            5  3122            4272                   89                   48
##  6            6  4667            6554                  892                   58
##  7            7  4372            6669                 1256                   57
##  8            8  2348            4736                  191                   76
##  9            9  3208            5865                  125                   83
## 10           10  5970            9516                  295                   78
## # ... with 154 more rows, and 20 more variables: BoundingBoxMinimum_X <dbl>,
## #   BoundingBoxMinimum_Y <dbl>, Center_X <dbl>, Center_Y <dbl>,
## #   Compactness <dbl>, Eccentricity <dbl>, EquivalentDiameter <dbl>,
## #   EulerNumber <dbl>, Extent <dbl>, FormFactor <dbl>, MajorAxisLength <dbl>,
## #   MaxFeretDiameter <dbl>, MaximumRadius <dbl>, MeanRadius <dbl>,
## #   MedianRadius <dbl>, MinFeretDiameter <dbl>, MinorAxisLength <dbl>,
## #   Orientation <dbl>, Perimeter <dbl>, Solidity <dbl>
…
