Add content • cypro
…
# new cluster variables 
getClusterVariableNames(object)

## [1] "hcl_euclidean_ward.D_k_4_(voi)" "pam_euclidean_k_4_(voi)"       
## [3] "example_cluster_variable"

The same works for variables that are not actual clustering results but are still grouping variables. These are stored in the meta data slot. An example data.frame whose content you might want to integrate in your cypro workflow might look like this.

# data.frame that groups conditions into mechanism of action 
moa_df

## # A tibble: 39 x 2
##    condition      moa                     
##    <chr>          <fct>                   
##  1 PP-2           Epithelial              
##  2 emetine        Protein synthesis       
##  3 AZ258          Aurora kinase inhibitors
##  4 cytochalasin B Actin disruptors        
##  5 ALLN           Protein degradation     
##  6 mitoxantrone   DNA replication         
##  7 AZ-C           Eg5 inhibitors          
##  8 MG-132         Protein degradation     
##  9 AZ841          Aurora kinase inhibitors
## 10 docetaxel      Microtubule stabilizers 
## # ... with 29 more rows

This data.frame needs the variable condition as key which is why we have to add them to the meta data of the cypro-object.

getMetaDf(object)

## # A tibble: 1,250 x 3
##    cell_id              cell_line condition
##    <chr>                <fct>     <fct>    
##  1 CID_51_WI_B2_1_WP_1  MCF7      DMSO     
##  2 CID_58_WI_B2_2_WP_1  MCF7      DMSO     
##  3 CID_79_WI_B2_2_WP_1  MCF7      DMSO     
##  4 CID_178_WI_B2_2_WP_1 MCF7      DMSO     
##  5 CID_253_WI_B2_2_WP_1 MCF7      DMSO     
##  6 CID_43_WI_B2_3_WP_1  MCF7      DMSO     
##  7 CID_108_WI_B2_3_WP_1 MCF7      DMSO     
##  8 CID_228_WI_B2_3_WP_1 MCF7      DMSO     
##  9 CID_194_WI_B2_4_WP_1 MCF7      DMSO     
## 10 CID_207_WI_B2_4_WP_1 MCF7      DMSO     
## # ... with 1,240 more rows
…
