Extract Data • cypro
…
The stats data.frame (statistics data.frame) contains summary information of every cell. In case of one time imaging it resembles exactly the data you have loaded in. In case of time lapse experiments it contains mean, median, maximum etc. summaries of all variables you specified to keep. Apart from the identifier variable cell_id all variables in this data.frame are numeric.

stats_df <- getStatsDf(object = object)

# this data.frame can get pretty big 
dim(stats_df)

## [1] 13000   354

# select only the first 25 variables
select(stats_df, 1:25) %>% 
  # print only the first 100 rows 
  head(100)

## # A tibble: 100 x 25
##    cell_id   AreaShape_Area AreaShape_Bound~ AreaShape_Boundi~ AreaShape_Boundi~
##    <chr>              <dbl>            <dbl>             <dbl>             <dbl>
##  1 CID_1_WI~           1102             1680              1214                28
##  2 CID_2_WI~           1370             2268              1263                36
##  3 CID_7_WI~           3453             7298              1173                89
##  4 CID_10_W~           5173             9548              1050                62
##  5 CID_14_W~           3548            10088               379               100
##  6 CID_15_W~           2723             3584              1238                85
##  7 CID_17_W~            774             1462                43                62
##  8 CID_20_W~           2378             4230              1060               109
##  9 CID_21_W~           1991             4389               864                93
## 10 CID_22_W~           4337            12180               576               149
## # ... with 90 more rows, and 20 more variables:
## #   AreaShape_BoundingBoxMinimum_X <dbl>, AreaShape_BoundingBoxMinimum_Y <dbl>,
## #   AreaShape_Center_X <dbl>, AreaShape_Center_Y <dbl>,
## #   AreaShape_Compactness <dbl>, AreaShape_Eccentricity <dbl>,
## #   AreaShape_EquivalentDiameter <dbl>, AreaShape_EulerNumber <dbl>,
## #   AreaShape_Extent <dbl>, AreaShape_FormFactor <dbl>,
## #   AreaShape_MajorAxisLength <dbl>, AreaShape_MaxFeretDiameter <dbl>,
## #   AreaShape_MaximumRadius <dbl>, AreaShape_MeanRadius <dbl>,
## #   AreaShape_MedianRadius <dbl>, AreaShape_MinFeretDiameter <dbl>,
…
Meta data.frame

Meta variables are grouping variables such as condition and cell line. They will feature a major overlap with those from the the well plate data.frame. However, in case of timelapse experiments that include multiple phases they might differ from phase to phase which is why they are stored separately. Use getMetaDf()to obtain the data.frame.

meta_df <- getMetaDf(object)

# print an example subset of every condition 
dplyr::group_by(meta_df, condition) %>% 
  dplyr::slice_head(n = 3)

## # A tibble: 39 x 5
## # Groups:   condition [13]
##    cell_id         cell_line condition     concentration       moa              
##    <chr>           <fct>     <fct>         <fct>               <fct>            
##  1 CID_2_WI_G10_1~ MCF7      5-fluorourac~ 5-fluorouracil (0.~ <NA>             
##  2 CID_5_WI_G10_1~ MCF7      5-fluorourac~ 5-fluorouracil (0.~ <NA>             
##  3 CID_6_WI_G10_1~ MCF7      5-fluorourac~ 5-fluorouracil (0.~ <NA>             
##  4 CID_2_WI_C10_1~ MCF7      AG-1478       AG-1478 (0.003)     <NA>             
##  5 CID_4_WI_C10_1~ MCF7      AG-1478       AG-1478 (0.003)     <NA>             
##  6 CID_8_WI_C10_1~ MCF7      AG-1478       AG-1478 (0.003)     <NA>             
##  7 CID_1_WI_B10_1~ MCF7      anisomycin    anisomycin (0.003)  Protein synthesis
##  8 CID_2_WI_B10_1~ MCF7      anisomycin    anisomycin (0.003)  Protein synthesis
##  9 CID_7_WI_B10_1~ MCF7      anisomycin    anisomycin (0.003)  Protein synthesis
## 10 CID_1_WI_C10_1~ MCF7      AZ258         AZ258 (0.01)        Aurora kinase in~
## # ... with 29 more rows

See the tutorial on how to add variables to the cto object to learn how to expand this data.frame.

Cluster data.frame

Cluster variables are the result of applied machine learning techniques such as kmeans- or hierarchical clustering. If none of these have been used the data.frame is going to be empty apart from the identifier variable cell_id. See the tutorial on how to cluster cells in cypro. Obtain the data.frame via getClusterDf().

cluster_df <- getClusterDf(object)

# print first 10 rows
head(cluster_df, 100)

## # A tibble: 100 x 12
##    cell_id  `hcl_euclidean_c~ `hcl_euclidean_~ `hcl_euclidean_~ `hcl_euclidean_~
##    <chr>    <fct>             <fct>            <fct>            <fct>           
##  1 CID_1_W~ 1                 1                1                1               
##  2 CID_2_W~ 1                 1                1                1               
##  3 CID_7_W~ 1                 1                1                1               
##  4 CID_10_~ 1                 1                1                1               
##  5 CID_14_~ 1                 1                1                1               
##  6 CID_15_~ 1                 1                1                1               
##  7 CID_17_~ 1                 1                1                1               
##  8 CID_20_~ 1                 1                1                1               
##  9 CID_21_~ 1                 1                1                1               
## 10 CID_22_~ 1                 1                1                1               
## # ... with 90 more rows, and 7 more variables:
## #   hcl_euclidean_ward.D_k_4_(intensity) <fct>,
## #   hcl_euclidean_ward.D_k_5_(intensity) <fct>,
## #   kmeans_Lloyd_k_3_(intensity) <fct>, kmeans_Lloyd_k_4_(intensity) <fct>,
## #   kmeans_Lloyd_k_5_(intensity) <fct>, pam_euclidean_k_4_(intensity) <fct>,
## #   pam_euclidean_k_5_(intensity) <fct>
…
