Module: Cellular Migration • cypro
…
2.1 Track data

This includes all data variables the CellTracker output contains:

Distance from origin, where for each cell the origin is the position of the cell in the first frame. (variable name: dfo)

Distance from last point (variable name: dflp)

Instantaneous speed, defined as the distance from the last point divided by the time elapsed between the acquisition frames (variable name: speed)

Assuming the data input files only contained x- and y-coordinates the respective track data.frame looks like this:

getTracksDf(object, phase = "all", with_grouping = FALSE)

## # A tibble: 191,688 x 9
##    cell_id   frame_num frame_time frame_itvl x_coords y_coords speed   dfo  dflp
##    <chr>         <dbl>      <dbl> <chr>         <dbl>    <dbl> <dbl> <dbl> <dbl>
##  1 CID_1_WI~         1          3 3 hours         253      218 0       0    0   
##  2 CID_1_WI~         2          6 6 hours         226      211 9.30   27.9 27.9 
##  3 CID_1_WI~         3          9 9 hours         234      198 5.09   27.6 15.3 
##  4 CID_1_WI~         4         12 12 hours        231      199 1.05   29.1  3.16
##  5 CID_1_WI~         5         15 15 hours        229      198 0.745  31.2  2.24
##  6 CID_1_WI~         6         18 18 hours        229      190 2.67   36.9  8   
##  7 CID_1_WI~         7         21 21 hours        231      199 3.07   29.1  9.22
##  8 CID_1_WI~         8         24 24 hours        233      200 0.745  26.9  2.24
##  9 CID_1_WI~         9         27 27 hours        233      202 0.667  25.6  2   
## 10 CID_1_WI~        10         30 30 hours        233      202 0      25.6  0   
## # ... with 191,678 more rows

2.2 Statistic data

All three track variables are summarized in the statistic slot:

getStatsDf(object, with_grouping = FALSE, phase = 1) 

## # A tibble: 7,987 x 21
##    cell_id        max_speed mean_speed median_speed min_speed sd_speed var_speed
##    <chr>              <dbl>      <dbl>        <dbl>     <dbl>    <dbl>     <dbl>
##  1 CID_1_WI_A1_1~      9.30      2.80         1.67          0     2.75      7.54
##  2 CID_1_WI_A1_2~      6.47      3.15         3.33          0     1.64      2.68
##  3 CID_1_WI_A1_3~      6.75      2.28         1.33          0     2.33      5.41
##  4 CID_1_WI_A2_2~      4.53      0.940        0.745         0     1.06      1.13
##  5 CID_1_WI_A2_3~      9.39      2.72         1.37          0     3.00      9.02
##  6 CID_1_WI_A3_1~      6.41      1.70         1.37          0     1.71      2.91
##  7 CID_1_WI_A3_2~     14.7       5.68         4.45          0     4.16     17.3 
##  8 CID_1_WI_A4_1~      8.75      2.60         1.67          0     2.35      5.54
##  9 CID_1_WI_A4_2~      5         0.993        0.667         0     1.21      1.47
## 10 CID_1_WI_A5_1~      8.07      4.74         5.08          0     2.70      7.27
## # ... with 7,977 more rows, and 14 more variables: max_dfo <dbl>,
## #   mean_dfo <dbl>, median_dfo <dbl>, min_dfo <dbl>, sd_dfo <dbl>,
## #   var_dfo <dbl>, max_dflp <dbl>, mean_dflp <dbl>, median_dflp <dbl>,
## #   min_dflp <dbl>, sd_dflp <dbl>, var_dflp <dbl>, total_dist <dbl>,
## #   mgr_eff <dbl>
…
