Rename Content • cypro
…
getGroupNames(object, grouping_variable = "pam_euclidean_k_4")

output

## [1] "round_shape"      "long_shape"       "rectangular_like" "triangular_like"

getClusterDf(object) %>% 
  select(cell_id, pam_euclidean_k_4)

output

## # A tibble: 13,000 x 2
##    cell_id              pam_euclidean_k_4
##    <chr>                <fct>            
##  1 CID_1_WI_B10_1_WP_1  round_shape      
##  2 CID_2_WI_B10_1_WP_1  round_shape      
##  3 CID_7_WI_B10_1_WP_1  long_shape       
##  4 CID_10_WI_B10_1_WP_1 round_shape      
##  5 CID_14_WI_B10_1_WP_1 long_shape       
##  6 CID_15_WI_B10_1_WP_1 round_shape      
##  7 CID_17_WI_B10_1_WP_1 round_shape      
##  8 CID_20_WI_B10_1_WP_1 long_shape       
##  9 CID_21_WI_B10_1_WP_1 long_shape       
## 10 CID_22_WI_B10_1_WP_1 round_shape      
## # ... with 12,990 more rows
…
